﻿cerebroViz,name,brainspan,gtex,roadmap
A1C,primary auditory cortex,A1C,.,.
AMY,amygdala,AMY,Amygdala,.
ANG,angular gyrus,.,.,Angular Gyrus
BS,brainstem,.,.,.
CAU,caudate,.,Caudate (basal ganglia),Anterior Caudate
CB,cerebellum,CBC,Cerebellum,Cerebellum
CNG,anterior cingulate cortex,.,Anterior cingulate cortex,Cingulate Gyrus
DFC,dorsolateral prefrontal cortex,DFC,.,Mid Frontal Lobe
FL,frontal lobe,.,Frontal Cortex,.
HIP,hippocampus,HIP,Hippocampus,Hippocampus Middle
HTH,hypothalamus,.,Hypothalamus,.
IPC,inferior parietal cortex,IPC,.,.
ITC,inferior temporal cortex,ITC,.,Inferior Temporal Lobe
M1C,primary motor cortex,M1C,.,.
MED,medulla oblongata,.,.,.
MFC,medial prefrontal cortex,MFC,.,.
OL,occipital lobe,.,.,.
OFC,orbital frontal cortex,OFC,.,.
PL,parietal lobe,.,.,.
PIT,pituitary gland,.,.,.
PUT,putamen,.,Putamen (basal ganglia),.
PON,pons,.,.,.
S1C,primary somatosensory cortex,S1C,.,.
SN,substantia nigra,.,Substantia nigra,Substantia Nigra
STC,posterior (caudal) superior temporal cortex,STC,.,.
STR,striatum,STR,.,.
TL,temporal lobe,.,.,.
THA,thalamus,MD,.,.
V1C,primary visual cortex,V1C,.,.
VFC,ventrolateral prefrontal cortex,VFC,.,.